All statistics are based on contigs of size >= 500 bp, unless otherwise noted (e.g., "# contigs (>= 0 bp)" and "Total length (>= 0 bp)" include all contigs).

Assembly                     abyss_ctg       cabog_ctg       mira_ctg        msrca_ctg       sga_ctg          soap_ctg        spades_ctg      velvet_ctg      Mix_assembly    CISA.ctg        gar           
# contigs (>= 0 bp)          132             56              256             52              1921             278             72              82              28              11              28            
# contigs (>= 1000 bp)       89              56              68              35              130              48              40              57              27              11              26            
# contigs (>= 5000 bp)       57              42              42              23              84               33              24              39              23              11              23            
# contigs (>= 10000 bp)      53              38              34              22              67               32              23              36              23              11              20            
# contigs (>= 25000 bp)      41              27              27              19              45               26              21              28              22              11              19            
# contigs (>= 50000 bp)      20              18              16              13              16               15              16              16              15              10              13            
Total length (>= 0 bp)       3040616         2796508         2890706         2896852         3024925          2856225         2861974         2829571         3731099         2686387         3130778       
Total length (>= 1000 bp)    3031704         2796508         2825994         2889489         2774031          2820329         2851518         2822704         3730670         2686387         3129519       
Total length (>= 5000 bp)    2942421         2760324         2775225         2857821         2668358          2772070         2806156         2774514         3716275         2686387         3121624       
Total length (>= 10000 bp)   2915586         2737195         2723617         2852361         2533290          2765423         2800715         2751640         3716275         2686387         3102613       
Total length (>= 25000 bp)   2688197         2550885         2608358         2802480         2173683          2664519         2766578         2619246         3705811         2686387         3081570       
Total length (>= 50000 bp)   1911056         2239499         2187622         2590893         1161077          2273977         2583416         2175254         3431318         2647685         2824462       
# contigs                    92              56              110             39              150              52              44              60              27              11              29            
Largest contig               244957          285328          379101          449789          173010           364183          350174          336190          936994          450490          496355        
Total length                 3034102         2796508         2853942         2892444         2787797          2822930         2854235         2824718         3730670         2686387         3236814       
Reference length             2903081         2903081         2903081         2903081         2903081          2903081         2903081         2903081         2903081         2903081         2903081       
GC (%)                       32.92           32.73           32.75           32.85           32.63            32.69           32.78           32.73           32.80           32.78           32.77         
Reference GC (%)             32.73           32.73           32.73           32.73           32.73            32.73           32.73           32.73           32.73           32.73           32.73         
N50                          64963           111165          132448          221821          39954            146332          187080          122507          292118          328045          326553        
NG50                         73887           102839          132448          221821          38102            146332          187080          122507          348180          328045          326553        
N75                          38351           56580           50006           123428          28545            92436           105739          52580           174868          245087          178324        
NG75                         39976           53749           50006           123428          23344            53313           105739          49888           246762          187208          186288        
L50                          13              7               7               5               22               7               6               7               4               4               4             
LG50                         12              8               7               5               23               7               6               7               3               4               4             
L75                          29              16              16              9               43               13              11              15              8               6               8             
LG75                         26              17              16              9               46               14              11              17              5               7               7             
# misassemblies              49              58              45              49              28               35              45              40              68              49              55            
# misassembled contigs       33              26              20              19              24               18              19              17              18              11              17            
Misassembled contigs length  1882240         2352860         1983957         2685729         942105           1822694         2666808         1834702         3416050         2686387         3062892       
# local misassemblies        67              59              73              81              49               74              76              74              107             79              85            
# scaffold gap ext. mis.     0               0               0               0               0                0               0               0               0               0               0             
# scaffold gap loc. mis.     0               0               0               0               0                0               0               0               0               0               0             
# unaligned mis. contigs     8               6               4               2               7                4               5               4               3               0               4             
# unaligned contigs          5 + 40 part     4 + 31 part     43 + 31 part    1 + 21 part     19 + 43 part     8 + 25 part     5 + 24 part     7 + 30 part     0 + 19 part     0 + 9 part      5 + 16 part   
Unaligned length             275379          165029          199693          236101          175776           186508          191023          181242          292327          129024          237658        
Genome fraction (%)          91.313          90.160          90.898          90.690          89.584           90.593          91.035          90.818          91.108          80.735          91.212        
Duplication ratio            1.041           1.005           1.006           1.009           1.004            1.002           1.008           1.003           1.300           1.091           1.133         
# N's per 100 kbp            0.00            0.00            1.61            0.00            0.00             0.00            2.00            0.00            0.05            0.00            0.19          
# mismatches per 100 kbp     894.38          859.09          877.81          896.38          823.55           878.52          877.09          877.86          1186.31         1047.32         966.41        
# indels per 100 kbp         35.61           61.78           36.11           34.94           29.65            34.75           35.23           34.48           52.33           41.64           42.07         
# genomic features           2793 + 89 part  2755 + 93 part  2791 + 87 part  2802 + 88 part  2587 + 105 part  2742 + 74 part  2811 + 73 part  2780 + 75 part  2811 + 83 part  2380 + 57 part  2822 + 79 part
Largest alignment            187548          172651          187778          187719          137514           187548          187603          187548          187719          187548          187548        
Total aligned length         2753077         2625154         2646580         2650552         2602315          2630550         2658771         2638078         3436031         2552379         2994079       
NA50                         43946           53148           56175           97410           32628            91572           92194           64055           97410           100473          97410         
NGA50                        49062           50772           52520           97410           32320            91572           92194           64055           125313          100093          100473        
NA75                         25998           29324           32626           39557           17410            34783           38909           33885           35557           45088           42776         
NGA75                        29813           23171           32190           39557           16278            33070           34783           32775           75165           36399           50764         
LA50                         19              14              15              11              28               12              11              14              14              10              12            
LGA50                        18              15              16              11              30               12              11              14              10              11              11            
LA75                         41              32              33              22              54               24              23              29              30              19              25            
LGA75                        37              35              34              22              59               26              24              31              18              22              20            
